%!PS-Adobe-3.0
%%Creator: cairo 1.12.16 (http://cairographics.org)
%%CreationDate: Wed Mar  7 01:47:37 2018
%%Pages: 1
%%DocumentData: Clean7Bit
%%LanguageLevel: 2
%%DocumentMedia: 169x102mm 480 290 0 () ()
%%BoundingBox: 60 98 404 194
%%EndComments
%%BeginProlog
/languagelevel where
{ pop languagelevel } { 1 } ifelse
2 lt { /Helvetica findfont 12 scalefont setfont 50 500 moveto
  (This print job requires a PostScript Language Level 2 printer.) show
  showpage quit } if
/q { gsave } bind def
/Q { grestore } bind def
/cm { 6 array astore concat } bind def
/w { setlinewidth } bind def
/J { setlinecap } bind def
/j { setlinejoin } bind def
/M { setmiterlimit } bind def
/d { setdash } bind def
/m { moveto } bind def
/l { lineto } bind def
/c { curveto } bind def
/h { closepath } bind def
/re { exch dup neg 3 1 roll 5 3 roll moveto 0 rlineto
      0 exch rlineto 0 rlineto closepath } bind def
/S { stroke } bind def
/f { fill } bind def
/f* { eofill } bind def
/n { newpath } bind def
/W { clip } bind def
/W* { eoclip } bind def
/BT { } bind def
/ET { } bind def
/pdfmark where { pop globaldict /?pdfmark /exec load put }
    { globaldict begin /?pdfmark /pop load def /pdfmark
    /cleartomark load def end } ifelse
/BDC { mark 3 1 roll /BDC pdfmark } bind def
/EMC { mark /EMC pdfmark } bind def
/cairo_store_point { /cairo_point_y exch def /cairo_point_x exch def } def
/Tj { show currentpoint cairo_store_point } bind def
/TJ {
  {
    dup
    type /stringtype eq
    { show } { -0.001 mul 0 cairo_font_matrix dtransform rmoveto } ifelse
  } forall
  currentpoint cairo_store_point
} bind def
/cairo_selectfont { cairo_font_matrix aload pop pop pop 0 0 6 array astore
    cairo_font exch selectfont cairo_point_x cairo_point_y moveto } bind def
/Tf { pop /cairo_font exch def /cairo_font_matrix where
      { pop cairo_selectfont } if } bind def
/Td { matrix translate cairo_font_matrix matrix concatmatrix dup
      /cairo_font_matrix exch def dup 4 get exch 5 get cairo_store_point
      /cairo_font where { pop cairo_selectfont } if } bind def
/Tm { 2 copy 8 2 roll 6 array astore /cairo_font_matrix exch def
      cairo_store_point /cairo_font where { pop cairo_selectfont } if } bind def
/g { setgray } bind def
/rg { setrgbcolor } bind def
/d1 { setcachedevice } bind def
%%EndProlog
%%Page: 1 1
%%BeginPageSetup
%%PageMedia: 169x102mm
%%PageBoundingBox: 60 98 404 194
%%EndPageSetup
q 60 98 344 96 rectclip q
0.529412 0.741176 0.4 rg
116.133 109.195 m 91.086 114.629 77.168 121.758 74.398 130.582 c 71.582
 139.367 80 148.156 99.656 156.945 c 73.336 147.695 60.504 138.117 61.16
 128.211 c 61.852 118.344 75.938 110.387 103.414 104.34 c 122.184 100.598
 143.359 98.613 166.949 98.383 c 190.574 98.152 214.082 99.539 237.477 102.547
 c 260.867 105.59 281.66 110.078 299.852 116.012 c 304.746 117.637 309.176
 119.309 313.148 121.043 c 312.953 120.969 312.758 120.91 312.57 120.867
 c 294.379 114.898 273.586 110.41 250.195 107.402 c 226.758 104.395 203.25
 102.988 179.668 103.184 c 156.078 103.414 134.902 105.418 116.133 109.195
 c f*
345.289 185.559 m 319.582 190.688 290.543 193.402 258.172 193.707 c 225.836
 194.02 193.637 192.109 161.57 187.984 c 129.469 183.863 100.973 177.734
 76.074 169.605 c 70.293 167.641 64.992 165.652 60.176 163.648 c 61.215 
164.035 62.273 164.402 63.355 164.75 c 88.254 172.879 116.75 179.023 148.852
 183.188 c 180.918 187.312 213.137 189.219 245.512 188.91 c 277.844 188.605
 306.863 185.887 332.57 180.758 c 367.293 173.207 386.371 163.281 389.801
 150.988 c 393.27 138.695 380.957 126.477 352.859 114.34 c 387.66 126.938
 404.387 139.926 403.039 153.301 c 401.691 166.672 382.441 177.426 345.289
 185.559 c f*
0.231373 0.156863 0.431373 rg
146.25 143.797 m 146.25 140.461 144.863 137.645 142.094 135.344 c 139.801
 133.445 137.617 132.5 135.547 132.5 c 120 132.5 l 120 133.844 l 120.438
 133.844 120.77 133.863 121 133.906 c 122.5 134.133 123.25 134.648 123.25
 135.453 c 123.25 164.453 l 122.02 165.016 120.703 165.297 119.297 165.297
 c 119.297 166.594 l 137.406 166.594 l 139.438 166.594 141.148 165.957 142.547
 164.688 c 143.953 163.426 144.656 161.848 144.656 159.953 c 144.656 158.117
 143.812 156.305 142.125 154.516 c 140.438 152.734 138.629 151.844 136.703
 151.844 c 139.535 151.844 141.77 151.258 143.406 150.094 c 145.301 148.727
 146.25 146.629 146.25 143.797 c h
140.203 159.203 m 140.203 160.629 139.77 161.879 138.906 162.953 c 137.938
 164.148 136.719 164.75 135.25 164.75 c 128.203 164.75 l 128.203 152.297
 l 134.453 152.297 l 135.953 152.297 137.285 153.031 138.453 154.5 c 139.617
 155.969 140.203 157.535 140.203 159.203 c h
141.344 142.453 m 141.344 144.516 140.879 146.297 139.953 147.797 c 138.879
 149.492 137.445 150.344 135.656 150.344 c 128.203 150.344 l 128.203 134.656
 l 129.672 134.352 131.188 134.203 132.75 134.203 c 135.082 134.203 137.066
 134.938 138.703 136.406 c 140.461 137.969 141.344 139.984 141.344 142.453
 c h
182.527 135.906 m 182.527 134.801 181.004 133.816 177.965 132.953 c 175.234
 132.184 172.551 131.797 169.918 131.797 c 164.824 131.797 160.406 133.312
 156.668 136.344 c 152.637 139.645 150.621 143.848 150.621 148.953 c 150.621
 151.648 151.121 154.195 152.121 156.594 c 153.391 159.664 155.34 162.117
 157.965 163.953 c 161.172 166.18 165.172 167.297 169.965 167.297 c 172.098
 167.297 174.129 167.129 176.059 166.797 c 177.996 166.461 180.152 165.93
 182.527 165.203 c 181.121 159.047 l 179.777 159.047 l 179.574 162.297 l
 176.938 164.297 173.855 165.297 170.324 165.297 c 165.855 165.297 162.27
 163.797 159.574 160.797 c 157.074 158.035 155.824 154.586 155.824 150.453
 c 155.824 145.984 157.238 142.234 160.074 139.203 c 163.074 135.961 167.004
 134.344 171.871 134.344 c 174.234 134.344 176.234 134.613 177.871 135.156
 c 179.266 135.75 180.684 136.363 182.121 137 c 182.285 137 182.402 136.93
 182.465 136.797 c 182.504 136.734 182.527 136.438 182.527 135.906 c h
228.184 143.797 m 228.184 140.461 226.797 137.645 224.027 135.344 c 221.734
 133.445 219.551 132.5 217.48 132.5 c 201.934 132.5 l 201.934 133.844 l 
202.371 133.844 202.703 133.863 202.934 133.906 c 204.434 134.133 205.184
 134.648 205.184 135.453 c 205.184 164.453 l 203.953 165.016 202.637 165.297
 201.23 165.297 c 201.23 166.594 l 219.34 166.594 l 221.371 166.594 223.082
 165.957 224.48 164.688 c 225.887 163.426 226.59 161.848 226.59 159.953 
c 226.59 158.117 225.746 156.305 224.059 154.516 c 222.371 152.734 220.562
 151.844 218.637 151.844 c 221.469 151.844 223.703 151.258 225.34 150.094
 c 227.234 148.727 228.184 146.629 228.184 143.797 c h
222.137 159.203 m 222.137 160.629 221.703 161.879 220.84 162.953 c 219.871
 164.148 218.652 164.75 217.184 164.75 c 210.137 164.75 l 210.137 152.297
 l 216.387 152.297 l 217.887 152.297 219.219 153.031 220.387 154.5 c 221.551
 155.969 222.137 157.535 222.137 159.203 c h
223.277 142.453 m 223.277 144.516 222.812 146.297 221.887 147.797 c 220.812
 149.492 219.379 150.344 217.59 150.344 c 210.137 150.344 l 210.137 134.656
 l 211.605 134.352 213.121 134.203 214.684 134.203 c 217.016 134.203 219
 134.938 220.637 136.406 c 222.395 137.969 223.277 139.984 223.277 142.453
 c h
258.852 133.656 m 258.852 132.5 l 250.961 132.5 l 250.961 136.703 l 249.355
 135.336 247.773 133.988 246.211 132.656 c 245.273 132.219 243.918 132 242.148
 132 c 240.418 132 238.887 132.469 237.555 133.406 c 236.086 134.438 235.352
 135.734 235.352 137.297 c 235.352 151.047 l 235.352 151.617 235.047 152.008
 234.445 152.219 c 233.852 152.438 233.137 152.547 232.305 152.547 c 232.074
 152.547 231.855 152.547 231.648 152.547 c 231.617 152.547 231.586 152.531
 231.555 152.5 c 231.555 153.703 l 239.555 155.75 l 239.758 155.25 l 239.758
 138.547 l 239.758 137.484 240.215 136.609 241.133 135.922 c 242.047 135.242
 243.09 134.906 244.258 134.906 c 245.789 134.906 247.289 135.41 248.758
 136.422 c 250.227 137.441 250.961 138.52 250.961 139.656 c 250.961 151.344
 l 250.961 151.844 250.684 152.191 250.133 152.391 c 249.578 152.598 248.918
 152.703 248.148 152.703 c 247.812 152.703 247.48 152.688 247.148 152.656
 c 247.055 152.656 246.922 152.633 246.758 152.594 c 246.758 153.703 l 255.055
 155.75 l 255.461 155.25 l 255.461 135.25 l 255.461 134.582 256.023 134.113
 257.148 133.844 c 257.523 133.781 258.09 133.719 258.852 133.656 c h
267.773 166.25 m 268.5 166.25 269.117 165.984 269.617 165.453 c 270.117
 164.922 270.367 164.254 270.367 163.453 c 270.367 162.711 270.102 162.094
 269.57 161.594 c 269.039 161.094 268.387 160.844 267.617 160.844 c 266.855
 160.844 266.227 161.109 265.727 161.641 c 265.227 162.18 264.977 162.852
 264.977 163.656 c 264.977 164.383 265.242 165 265.773 165.5 c 266.305 166
 266.969 166.25 267.773 166.25 c h
273.727 133.656 m 273.727 132.5 l 262.18 132.5 l 262.18 133.656 l 262.406
 133.656 262.59 133.656 262.727 133.656 c 263.527 133.656 264.242 133.738
 264.867 133.906 c 265.5 134.07 265.82 134.422 265.82 134.953 c 265.82 150.203
 l 265.82 150.961 265.559 151.508 265.039 151.844 c 264.527 152.176 263.84
 152.344 262.977 152.344 c 262.734 152.344 262.387 152.312 261.93 152.25
 c 261.93 153.5 l 263.262 153.695 264.594 153.961 265.93 154.297 c 267.262
 154.629 268.559 155.047 269.82 155.547 c 270.227 155.047 l 270.227 134.906
 l 270.227 134.301 270.641 133.914 271.477 133.75 c 271.809 133.688 272.559
 133.656 273.727 133.656 c h
287.59 133.656 m 287.59 132.5 l 275.699 132.5 l 275.699 133.75 l 276.062
 133.719 276.359 133.703 276.59 133.703 c 277.391 133.703 278.012 133.785
 278.449 133.953 c 279.145 134.211 279.496 134.66 279.496 135.297 c 279.496
 163.844 l 279.496 164.281 279.207 164.609 278.637 164.828 c 278.074 165.047
 277.441 165.156 276.746 165.156 c 276.309 165.156 275.988 165.133 275.793
 165.094 c 275.793 166.5 l 278.594 166.938 281.262 167.488 283.793 168.156
 c 283.793 135.344 l 283.793 134.582 284.426 134.066 285.699 133.797 c 286.094
 133.734 286.723 133.688 287.59 133.656 c h
317.254 133.953 m 317.254 132.5 l 309.066 132.5 l 309.066 136.797 l 307.855
 135.43 306.492 134.32 304.973 133.469 c 303.461 132.625 301.887 132.203
 300.254 132.203 c 297.254 132.203 294.934 133.203 293.301 135.203 c 291.676
 137.203 290.863 140.035 290.863 143.703 c 290.863 147.297 292.129 150.211
 294.66 152.453 c 297.023 154.547 299.887 155.594 303.254 155.594 c 304.324
 155.594 305.352 155.469 306.332 155.219 c 307.32 154.969 308.23 154.562
 309.066 154 c 309.066 163.656 l 309.066 164.352 308.398 164.816 307.066
 165.047 c 306.629 165.117 305.961 165.172 305.066 165.203 c 305.066 166.5
 l 306.566 166.727 307.93 166.977 309.16 167.25 c 309.629 167.352 310.992
 167.656 313.254 168.156 c 313.254 136.297 l 313.254 135.367 313.637 134.703
 314.41 134.297 c 314.941 134.035 315.621 133.906 316.457 133.906 c 316.621
 133.906 316.805 133.906 317.004 133.906 c 317.074 133.906 317.16 133.922
 317.254 133.953 c h
302.66 135.203 m 304.43 135.203 305.941 135.844 307.191 137.125 c 308.441
 138.406 309.066 139.93 309.066 141.703 c 309.066 149.703 l 309.066 150.336
 308.23 151.129 306.566 152.078 c 304.898 153.023 303.398 153.5 302.066 
153.5 c 299.855 153.27 298.086 152.281 296.754 150.531 c 295.418 148.781
 294.754 146.738 294.754 144.406 c 294.754 141.906 295.441 139.785 296.816
 138.047 c 298.316 136.148 300.262 135.203 302.66 135.203 c h
333.285 155.75 m 335.742 155.445 337.758 154.414 339.332 152.656 c 340.758
 151.051 341.773 148.914 342.379 146.25 c 336.332 144.094 l 325.473 144.094
 l 325.473 141.895 326.039 139.863 327.176 138 c 328.477 135.863 330.098
 134.711 332.035 134.547 c 332.262 134.516 332.492 134.5 332.723 134.5 c
 332.93 134.5 333.148 134.5 333.379 134.5 c 334.68 134.5 335.863 134.648
 336.926 134.953 c 337.996 135.254 339.23 135.738 340.629 136.406 c 340.926
 136 l 340.457 134.633 339.523 133.582 338.129 132.844 c 336.898 132.219
 335.414 131.906 333.676 131.906 c 329.977 131.906 326.977 132.836 324.676
 134.703 c 322.039 136.836 320.723 139.906 320.723 143.906 c 320.723 147
 321.762 149.758 323.848 152.188 c 325.93 154.625 328.555 155.844 331.723
 155.844 c 331.887 155.844 332.105 155.832 332.379 155.812 c 332.648 155.801
 332.949 155.781 333.285 155.75 c h
325.582 146 m 337.676 146 l 337.707 146.301 337.723 146.52 337.723 146.656
 c 337.723 148.414 337.273 150.031 336.379 151.5 c 335.348 153.164 334.066
 154 332.535 154 c 329.93 154 328.059 153.18 326.926 151.547 c 326.027 150.242
 325.582 148.395 325.582 146 c h
362.289 154.75 m 362.09 153.883 361.953 153 361.883 152.094 c 361.82 151.195
 361.789 150.234 361.789 149.203 c 361.516 149.098 361.23 149.098 360.93
 149.203 c 360.469 149.766 360.09 150.18 359.789 150.453 c 359.09 151.047
 358.289 151.344 357.383 151.344 c 356.621 151.344 355.797 150.992 354.914
 150.297 c 354.027 149.598 353.434 148.816 353.133 147.953 c 353.133 135.047
 l 353.133 134.516 353.574 134.148 354.461 133.953 c 355.344 133.754 356.273
 133.656 357.242 133.656 c 357.605 133.656 357.82 133.656 357.883 133.656
 c 357.914 133.656 357.949 133.656 357.992 133.656 c 357.992 132.5 l 344.836
 132.5 l 344.836 133.656 l 345.73 133.656 346.398 133.672 346.836 133.703
 c 348.168 133.867 348.836 134.285 348.836 134.953 c 348.836 151.594 l 348.836
 151.863 348.586 152.047 348.086 152.141 c 347.586 152.242 347.016 152.297
 346.383 152.297 c 346.016 152.297 345.668 152.297 345.336 152.297 c 345.23
 152.297 345.078 152.281 344.883 152.25 c 344.836 153.5 l 347.367 153.801
 350 154.484 352.742 155.547 c 353.133 155.047 l 353.133 150.094 l 353.934
 151.332 354.617 152.25 355.18 152.844 c 356.949 154.676 358.781 155.594
 360.68 155.594 c 361.312 155.594 361.852 155.312 362.289 154.75 c h
f
Q Q
showpage
%%Trailer
%%EOF
